-37.95,146.083
-37.88,145.3
-38.25639667,147.2952883
-36.9,141.72
-37.283,144.95
-36.33,141.65
-36.57,141.98
-35.07085,142.32032
-36.15,146.6
-37.946567,145.131884
-37.935229,145.343039
-37.941583,145.348916
-34.13,142.03
-38.079,141.803
-38.076,141.788
-38.53,143.53
-36.4,145.37
-36.58,143.87
-38.1,146.5
-37.8,145.4
-37.75,144.97
-37.87,145.28
-36.77,144.28
-37.05,142.77
-38.35,141.6
-37.73,142.02
-37.72,145.15
-36.766,144.283
-37.28,141.3
-37.2,142.62
-37.9,145.35
-35.93,142.42
-36.75,141.83
-34.18,142.15
-37.8,145.28
-37.65,145.1
-34.63,141.96
-37.82,145.23
-37.57,149.15
-37.68,144.92
-37.83,145.25
-35.17,141.7
-34.75,142.33
-34.73,142.35
-37.93333,145.45
-36.33333333,141.65
-37.28333333,142.9333333
-36.43333435,146.5666656
-37.23333359,146.1000061
-37.23333359,147.75
-37.18333435,147.7666626
-37.15000153,142.5333405
-37.03332901,141.2166595
-36.91667175,141.9333344
-37.18333054,142.5666656
-37.28332901,143.1833344
-37.05,142.7833333
-37.16667175,143.0500031
-37.28332901,142.8999939
-36.73333,146.9667
-37.13333333,142.5166667
-37.85,145.2666667
-36.41667175,141.6499939
-35.18333,143.3833
-34.18333054,141.6333313
-34.28332901,141.6000061
-35.5,142.0500031
-36.56833267,141.3347168
-37.98332977,145.0333405
-34.75,142.3333
-36,144.4333333
-37.71667,145.15
-36.43333333,143.6166667
-35.65722275,141.3249969
-36.58333333,143.8666667
-34.7,142.7833333
-37.81666946,144.9667053
-36.76667,144.2833
-37.7,145.1
-34.18333054,142.1166687
-34.76667023,142.3333282
-37.3,144.95
-37.0503,144.104
-36.845,144.777
-36.8289,144.767
-36.8006,143.863
-36.3339,146.195
-36.2753,146.213
-36.2672,146.202
-36.2083,146.16
-37.3,142.77
-36.7756,143.812
-36.7942,143.788
-36.6469,143.61
-36.6358,143.618
-36.5356,143.868
-37.27036454,142.9421711
-36.5267,143.863
-36.7972,143.446
-38.40181456,144.1778648
-36.7983,143.431
-36.8014,143.415
-36.7925,143.411
-36.7833,143.424
-36.675,143.244
-36.7469,144.837
-36.76,144.823
-36.7478,144.934
-36.2022,146.192
-36.7669,144.908
-36.87,144.725
-36.1581,146.202
-36.5889,144.732
-36.5808,144.733
-36.583,141.75
-35.07,142.32
-36.5858,143.681
-36.5817,143.668
-36.5961,143.736
-36.5306,143.846
-36.54,143.863
-36.5483,143.86
-36.54,143.872
-36.7736,143.075
-37.0106,142.739
-37.0072,142.722
-37.0047,142.724
-37.05,146.0833333
-36.9939,142.721
-36.5136,144.442
-36.5036,144.432
-36.5358,144.338
-35.03333333,143.3333333
-36.5461,144.353
-36.5472,144.362
-36.45000076,146.0500031
-36.56,144.336
-36.7639,144.984
-36.7306,144.471
-36.7153,144.425
-37.81394,144.96341
-37.65,145.5333333
-37.56666667,145.6666667
-37.75,145.7
-37.34999847,144.1499939
-37.75,145.2166667
-37.71667099,145.6166687
-37.56666667,149.15
-37.78333333,145.5333333
-37.56666667,144.4
-37.75,145.22
-37.55,149.75
-37.83,144.97
-37.76666667,145.05
-37.86666667,145.0333333
-35.7,141.8667
-38.46666667,144.1
-37.81667,144.9667
-37.81666667,145.0833333
-37.2,145.7167
-36.13333333,144.75
-37.946702,145.131454
-38.75055,143.666409
-37.82,145.07
-37.990988,145.125693
-37.816,145.083
-37.8,144.95
-37.37,143.17
-37.09999847,144.3333282
-38.34999847,141.6000061
-38.15,145.1333333
-37.91666667,147.75
-37.41667,144.5667
-37.88333333,145.3666667
-37.71666667,145.0833333
-38.53332901,143.5332947
-36.91667,147.1
-38.48333,145.95
-37.88333333,145.3
-37.55,149.35
-37.53333,145.3333
-36.9,147.0666667
-37.96667,145.05
-37.678997,145.06382
-37.13334,142.5167
-37.71667099,147.3333282
-37.71666667,145.6166667
-37.946465,145.131712
-37.3666687,145.0333405
-37.41667175,144.9833374
-37.96098194,145.2948761
-38.075666,145.12253
-38.47434377,146.7398087
-37.94692684,145.1319769
-38.022,145.4413
-37.41666,144.56666
-38.19,146.53
-37.65,145.53
-37.8,145.22
-37.88616,145.28207
-37.76667,145.4667
-37.55,148.25
-37.56667,143.85
-37.42,144.57
-37.78,145.53
-37.95,145.55
-37.92,146.42
-37.4,146.62
-37.43,149.22
-37.47,145.53
-38.4222511,144.9550237
-38.42155832,144.9536824
-36.9,147.27
-37.65,145.52
-37.35,144.75
-37.479,144.719
-37.43333054,145.1333313
-37.46667099,147.25
-37.65000153,145.1000061
-37.91667175,145.3500061
-37.947074,145.130467
-37.51666,145.75
-38.18,145.15
-37.92,145.35
-37.72,145.13
-37.98,145.08
-37.05,146.08
-37.23333359,149.1166687
-37.916667,145.35
-37.947108,145.130918
-38.03782656,145.3688753
-37.88,145.17
-37.29,142.6
-39,146.3333333
-38.63333511,143.6999969
-37.41667175,147.1166687
-37.79999924,145
-38.5,142.7333374
-37.66666667,144.35
-37.41666667,145.7166667
-37.83333,145.35
-37.972316,145.013051
-37.48332977,146.9833374
-37.84999847,147.0833282
-36.93333054,146.2833405
-37.9472708,145.1323107
-37.13333,142.51666
-37.946973,145.131755
-38.128223,145.288825
-38.128101,145.288932
-37.91666667,144.6666667
-36.71667099,146.7666626
-37.966667,145.05
-38.03709781,145.3697944
-38.03671035,145.370324
-38.03689185,145.3702352
-38.55,146.25
-38.1,145.3
-37.83333333,144.7833333
-37.6,145.27
-37.75,145.65
-37.83333333,145.25
-37.68333333,144.5833333
-38.46667,145.2333
-36.81666946,144.9499969
-37.81666667,145.2333333
-36.36666667,141.8
-37.66667,145.5833
-37.68333333,144.9166667
-37.78,145.43
-36.62,144.24
-37.35,144.52
-37,144.07
-37.683,144.916
-37.48,144.58
-38.33,141.6
-38.35,144.95
-38,141.02
-37.87,146.72
-37.6,146.63
-37.883333,145.3
-36.766667,144.283333
-37.41666,145.71665
-37.81666946,144.5333405
-37.82,145.17
-37.9,145.3
-36.91666667,144.7
-37.82,144.97
-36.17,146.9
-38.15000153,141.3333282
-36.52,147.42
-37,142.45
-36.25,142.383
-36.88,144.32
-37.2,148.73
-37.68,145.1
-37.9,145.33
-38.05,145.37
-34.81263,141.76617
-38,143.05
-37.87,144.77
-35.73,143.92
-34.37,141.8
-37.7,144.47
-35.47,143.27
-37.73,144.65
-34.3,142.22
-36.018168,145.999554
-37.96667099,144.4333038
-38.6,145.6
-36.69361,144.24198
-37.05,147.6333333
-37.93,145.43
-37.28,142.93
-37.945974,145.132334
-37.77,145.62
-37.68,144.43
-37.62,145.6
-37.933333,144.433333
-37.88333893,145.3500061
-37.47,144.68
-37.67,144.43
-36.41,145.06
-37.3,143.11
-37.88333893,145.3000031
-36.93333333,146.2833333
-36.983,147.15
-37.88,145.42
-36.62,142.47
-37.78,145.62
-37.5,144.5833333
-37.95,144.4333333
-37.5,148.18
-38.63,143.58
-38.63,143.57
-37.883,145.3
-37.97,147.75
-37.91388,145.35694
-37.95,146.45
-37.77,145.65
-36.25,144.57
-37.67,142.35
-37.55,143.85
-37.38,144.67
-36.45,142.03
-36.70102,144.26023
-36.45,142.033
-36.43,145.23
-34.77,142.27
-37.13,142.35
-36.58,142.12
-37.0106,144.104
-37.0208,144.114
-37.0547,144.067
-36.2914,146.192
-36.54,146.157
-36.1475,146.655
-36.5286,143.852
-36.7078,143.226
-36.7289,143.007
-36.7108,144.479
-38.45,143.97
-37.9,145.5
-37.95000076,144.4333344
-37.11666,142.4333
-37.88,145.03
-38.15,145.13
-37.47,144.67
-37.98,145.2
-38.02,145.3
-38.17,145.93
-37.84,145.26
-37.8,144.9
-38.42,142
-38.15,146.47
-37.68,145.37
-36.43333054,141.7833405
-35.5,142.05
-36.73332977,146.8166656
-37.45,144.2667
-36.91667175,147.4666595
-37.83332825,146.2833405
-37.81666667,145.05
-38.63333333,143.5666667
-37.88333893,145.3666687
-37.82,145.15
-37.15,148.88
-37.36666667,144.5333333
-37.51666667,145.75
-37,144.0666667
-37.35,146
-37.55,144.37
-36.73749,146.80694
-37.56667,149.75
-37.71,147.99
-37.33889008,149.2119446
-36.31667,146.2
-37.61666,148.4667
-37.75,144.9666667
-36.43333333,141.8
-36.37,146.7
-37.30694962,148.7019501
-36.716,147.133