-35.87,143.8
-35.73,143.92
-36.88,144.32
-36.02,146
-35.06444,141.7361
-37.13,142.35
-36.05,142.68
-34.25,142.2
-37.03,141.28
-35.07,142.32
-34.3,142.22
-35.97,144.37
-35.18,143.27
-37.75,144.8
-38,141.02
-35.58,143.77
-37.8,145
-37.72,145
-34.17,142.07
-38.1,145.3
-34.3,142.216667
-35.066667,142.15
-38,141
-35.733333,143.916667
-37.133333,142.016667
-37.33,144.48
-37.67,145.51
-35.94,144.46
-35.65,144.13
-35.73,143.91
-34.72,143.15
-34.59,142.77
-36.4,145.37
-37.82,145.15
-37.88,145.3
-37.85,147.08
-37.53,145.33
-37.5,149.17
-37.83,144.98
-37.533333,145.333333
-37.883333,145.3
-36.4,145.366667
-37.85,147.083333
-37.816667,145.15
-37.5,149.166667
-35.866667,143.8
-37.833333,144.983333
-36.016667,146
-37.78,145.07
-35.7,143.9
-37.27,144.11
-35.9,144.35
-37.0200982,144.84375
-37.7794756,144.9134417
-37.91818504,145.1309552
-37.816631,145.155659
-37.798965,145.580453
-37.90370505,144.6807326
-37.90743688,145.1397934
-37.90751844,145.1397236
-38.02446654,145.3292549
-38.02436172,145.3292903
-37.96509323,145.3189173
-37.90361731,144.6807798
-37.79970492,144.8739331
-37.79958412,144.8746206
-37.79999315,144.8729382
-38.03462524,145.3930443
-38.02887301,145.3476326
-37.797143,145.038683
-37.82402325,145.1494595
-38.17332057,145.1356686
-37.9101649,145.1381541
-37.73220607,145.2257807
-38.13622183,145.1534243
-38.46443719,145.1795793
-37.87501896,145.0855174
-37.8262106,145.0741515
-38.0319181,145.3488049
-37.87276156,145.070751
-36.73888412,145.0195313
-37.42252593,144.5526123
-37.9060437,145.1364998
-37.88870865,144.9911158
-37.843019,145.125992
-37.91122637,145.1330888
-37.91116712,145.1330137
-37.732193,145.2257936
-37.760406,145.079206
-37.797006,145.038712
-38.09811401,145.294382
-38.01221662,145.2383445
-37.72929503,145.2374371
-37.862168,145.3264303
-37.69964294,145.1335903
-37.69857096,145.0397912
-37.85845,145.0060528
-37.87089,144.984062
-37.17698277,145.8615394
-37.87946266,145.2817872
-37.895616,145.194197
-37.3592978,144.7440239
-37.71015399,144.8393404
-37.8,145.1
-37.787254,145.068174
-37.76618984,145.2876743
-37.82969108,144.9786726
-36.431524,145.22454
-37.82277681,145.0251685
-37.83086386,145.2024857
-37.505123,145.119381
-37.75963375,144.9073074
-37.85830895,145.0981096
-36.55863054,146.1969738
-37.82704117,145.0119148
-37.8002995,148.7329075
-37.989815,145.079761
-37.901312,145.071368
-37.85320384,145.1494954
-36.6627063,146.7141493
-36.34498,146.313903
-36.72161961,146.681877
-37.763386,145.206813
-38.151145,144.314123
-37.83056492,144.9788634
-37.77340833,144.98607
-37.77518333,144.9872889
-37.77542,144.987489
-36.8602778,145.444444
-38.34958606,144.7351304
-37.880824,145.232362
-37.77905,144.907564
-37.887628,145.134863
-37.913592,145.133343
-37.70878879,145.1492861
-37.83013231,144.9786917
-37.83025037,144.9786595
-37.83022183,144.9786264
-38.34243637,144.945092
-38.34367592,144.946201
-37.79929315,145.0001357
-37.90718882,145.1394623
-37.90863118,145.1305009
-37.90740428,145.1393848
-38.05727949,145.4983816
-37.90990539,145.133114
-37.79969644,144.8740811
-37.7962439,145.0385156
-37.8004008,145.0376924
-38.0332219,145.3284911
-37.82050649,145.1501597
-37.73231948,145.2257035
-38.0346907,145.3918919
-38.028498,145.378422
-37.91117578,145.1331932
-37.875249,145.085629
-37.814098,145.020986
-37.87361693,145.0712556
-37.87595434,145.0440795
-38,145.3
-37.863981,144.894524
-38.6334619,145.7295616
-37.66824494,145.1548318
-37.778485,145.366047
-37.7784761,145.3660779
-37.90784491,145.1343549
-37.91041607,145.1340845
-37.15423835,142.5069382
-37.8730285,145.2204602
-38.77,143.45
-36.55,142.2
-37.801846,144.969681
-37.3734313,144.4945049
-37.94480555,145.0875802
-37.66347321,145.1512099
-37.79970068,144.8743515
-37.80083242,144.8773327
-37.79946967,144.8731672
-37.74377461,145.231891
-37.87268534,145.0706012
-37.7,145.1
-37.9651061,145.318929
-37.9661409,145.3219222
-38.029187,145.3472424
-37.911557,145.134011
-37.87278697,145.0707407
-37.15,146.32
-37.77596866,144.9848707
-37.77552833,144.9879133
-37.69489904,145.3302531
-37.830448,144.97902
-37.830299,144.979071
-37.830441,144.979076
-37.830391,144.979014
-37.827845,144.979959
-37.832687,144.983656
-37.832661,144.98364
-37.8305,144.982854
-37.830415,144.982727
-37.830624,144.977397
-37.830467,144.977424
-37.831949,144.980422
-37.831935,144.980499
-37.8868818,145.0618103
-37.748181,145.645669
-37.8,145.6
-37.7,145.3
-37.7,145.2
-37.829526,144.978522
-37.827947,144.979974
-37.828038,144.979991
-37.828067,144.980281
-37.829506,144.978839
-37.829598,144.978876
-37.82959,144.978918
-37.829595,144.978884
-37.829818,144.978841
-37.76361591,145.4904764
-37.07515867,144.2125139
-37.71685665,145.0534802
-37.83019303,144.976272
-37.07,144.22
-38.13469897,145.2596178
-37.8856521,145.165179
-37.68976297,144.8176783
-37.72914,145.064465
-37.8,145.3
-37.70357569,145.1182151
-38.2,145.1
-37.8,145.4
-37.9,145.2
-37.830122,144.977271
-37.824848,144.996701
-37.827126,144.989379
-37.828381,144.982093
-37.15,146.15
-37.066667,144.05
-38.766667,143.45
-37.40842167,144.5949217
-37.13,142.43
-37.133333,142.1
-34.1,141.083333
-36.166667,146.9
-37.816667,144.966667
-37.283333,142.933333
-37.133333,142.433333
-36.6,147.78
-37.83,145.35
-37.42,145.72
-37.88,145.37
-37.75,145.7
-37.9,145.35
-37.78,144.28
-37.82,145.23
-37.88,145.03
-38.32,146.32
-36.43,147.37
-37.57,149.15
-37.8,147.45
-36.87,146.87
-37.5,145.73
-37.77,145.45
-37.8,145.33
-37.2,142.5
-37.88,145.42
-37.5,145.87
-37.62,145.6
-36.77,146.77
-38.53,143.53
-37.17,146.63
-37.92,141.27
-38.02,145.25
-39.03,146.33
-37.7,145.73
-36.72,146.77
-37.67,145.85
-37.85,145.73
-38.98,146.3
-37.68,149.52
-37.32,145.72
-37.38,144.58
-37.65,145.42
-37.616667,145.6
-37.883333,145.366667
-36.6,147.783333
-36.716667,146.766667
-37.8,145.333333
-37.416667,145.716667
-38.983333,146.3
-37.683333,149.516667
-37.833333,145.35
-38.533333,143.533333
-37.783333,144.283333
-37.7,145.733333
-37.883333,145.033333
-38.316667,146.316667
-37.816667,145.233333
-37.316667,145.716667
-36.433333,147.366667
-37.883333,145.416667
-37.383333,144.583333
-37.566667,149.15
-37.166667,146.633333
-38.033333,141
-36.866667,146.866667
-37.5,145.733333
-37.766667,145.45
-37.5,145.866667
-37.666667,145.85
-37.85,145.733333
-36.766667,146.766667
-37.65,145.416667
-37.916667,141.266667
-37.13,142.52
-37.82,145.17
-37.67,144.57
-37.7,145.67
-37.93,144.43
-38,145.42
-36.2,145.816
-38.25,141.5
-37.65,145.53
-37.68,144.92
-36.05,142.016667
-37.866667,144.983333
-37.8,144.95
-37.8,145.28
-37.666667,144.566667
-37.816667,145.166667
-37.7,145.666667
-37.65,145.533333
-37.683333,144.916667
-37.933333,144.433333
-37.8,145.283333
-37.12,142.42
-38.15,145.13
-38.47,144.05
-38.03,145.35
-37.116667,142.083333
-38.466667,144.05
-38.05,141.016667
-37.25,142.433333
-37.78,145.43
-37.27,142.92
-37,147.03
-37.6,145.27
-37,147
-37.783333,145.433333
-37.6,145.266667
-37.266667,142.916667
-38.17,145.93
-37.78,144.95
-36.68,147.13
-37.1,147.43
-37.55,143.85
-37.1,147.1
-36.683333,147.133333
-37.033333,141.116667
-37.783333,144.95
-38.166667,145.933333
-38.18,146.27
-36.25,142.43
-38.183333,146.266667
-36.25,142.433333
-36.78,145.17
-37.2,145.72
-37.73,144.98
-37.2,145.716667
-37.733333,144.983333
-36.783333,145.166667
-34.12,141.1
-35.52,143.95
-35.583333,143.766667
-34.116667,141
-35.516667,143.95
-36.13,144.75
-36.35,146.32
-36.58,141.75
-36.25,142.625
-36.583,141.75
-36.52,142.42
-36.25,142.65
-36.48,141.25
-36.133333,144.083333
-36.35,146.316667
-36.583333,141.75
-36.25,142.616667
-36.516667,142.416667
-36.32,145.05
-35.28,142.85
-35.7,142.917
-34.77,142.27
-34.1,141.25
-37.57,149.1
-35.68,143.73
-37.0708,142.596
-37.53,142.33
-36.9583,142.692
-36.9958,142.729
-37.22,145.05
-35.966,144.366
-34.75,142.283333
-35.283333,142.85
-35.966667,144.366667
-36.483333,142.033333
-36.05,146.133333
-37.683333,144.583333
-38.1,145.283333
-34.766667,142.266667
-37.533333,142.333333
-37.066667,142.083333
-37.566667,149.1
-36.316667,145.05
-35.683333,143.733333
-36.95,142.683333
-36.983333,142.716667
-37.216667,145.05
-35.7,142.916667
-36.2,142.82
-36.28,148.03
-34.3,142.266667
-36.2,142.816667
-36.47,143.08
-36.466667,143.083333
-36.366667,141.8
-36.25,142.47
-36.25,142.466667
-37.75,142.03
-37.7,145.07
-38.38,144.83
-37.85,144.97
-37.83,144.95
-37.75,142.033333
-38.383333,144.833333
-37.7,145.066667
-37.85,144.966667
-37.833333,144.95
-37.57,145.3
-37.67,144.43
-37.666667,144.433333
-37.566667,145.3
-37.9,145.33
-36.37,141.8
-37.9,145.333333
-37.75,147.6
-37.73,148.1
-37.88,145.13
-37.85,145.05
-37.82,144.97
-37.733333,148.1
-36.87554,147.2861
-37.02832,147.27166
-36.95472,147.39721
-37.05,147.55
-37.02,147.18
-36.92527,147.2986
-37.016667,147.016667
-37.05,147.05
-36.73,142.02
-36.733333,142.016667
-35.716667,143.9
-38.4,144.18
-37.8,144.98
-39.03,146.38
-37.83,145
-37.48,149.38
-37.63,149.15
-37.78,147.95
-38.4,144.183333
-37.833333,145
-37.8,144.983333
-37.483333,149.383333
-37.633333,149.15
-37.783333,147.95
-37.816667,145.016667
-37.65,145.5
-38.35,141.6
-37.783333,145.533333
-38.416667,144.183333
-36.4,143.02
-36.78,143.43
-36.25,142.48
-34.73,142.27
-34.733333,142.266667
-36.4,143.016667
-36.783333,143.433333
-36.25,142.483333
-37.76667,145.4667
-37.88333333,145.3
-37.11666667,142.4
-37.766667,145.466667
-38.7,145.866667
-37.983333,146.383333
-37.65,145.883333
-37.5,147.833333
-37.466667,144.266667
-37.5,142.083333
-38.15,145.133333
-38.26667023,145.0333405
-37.81666946,144.9667053
-37.86666,144.8167
-38.15,145.1333333
-37.96667,145.0167
-37.91667,145
-38.48333,145.95
-37.94888,145.005
-35.96667099,144.3666687
-37.916667,145.35
-38.266667,145.033333
-37.783333,145.383333
-38.166667,145.183333
-38.116667,145.133333
-37.83332825,144.9833374
-37.98333333,145.2166667
-37.81666946,144.9666595
-37.85,145.0166667
-36.90000153,145.2333374
-37.81666667,145.2333333
-37.57,148.88
-37.27,149.15
-38.1,145.2833
-36.9,145.23
-37.77,145.47
-37.8,145.23
-37.23,145.03
-38.53333333,143.9666667
-37.63,142.35
-37.68333333,144.9166667
-37.82,145.13
-37.87,145.28
-37.5,148.15
-37.45,147.25
-36.82,145.85
-37.98,145.08
-37.1,147.6
-37.98,145.22
-37.78,145.53
-37.06444,145.655
-37.77,145.35
-37.066,144.216
-36.933333,142.316667
-36.9,145.233333
-37.8,145.233333
-37.983333,145.083333
-37.866667,145.283333
-36.816667,145.85
-37.766667,145.35
-37.983333,145.216667
-37.716667,145.15
-36.116667,146.883333
-37.666667,142.35
-37.483333,149.583333
-37.716667,148.466667
-37.816667,145.133333
-37.266667,149.15
-37.566667,148.883333
-34.166667,142.066667
-37.233333,145.033333
-37.633333,142.35
-36.73333333,146.8166667
-37.88333893,145.0333405
-37.91667175,145.3500061
-37.98332977,145.0333405
-37.93333,145.45
-37.27,147.72
-38.45000076,145.25
-37.06666667,144.2166667
-37.13334,142.5167
-36.36666667,141.8
-37.78333333,145.3833333
-37.81666565,144.9666595
-38.216,145.183
-37,142.45
-38.47,145.23
-38.016667,141.4
-37.066667,147.15
-38.466667,145.233333
-37,142.116667
-37.266667,147.716667
-37.733333,148.016667
-37.97,145.12
-37.88,145.05
-37.97,145.02
-37.77,144.97
-37.883333,145.05
-37.916667,147.75
-37.966667,145.016667
-37.966667,145.116667
-37.716667,145
-37.833333,147.616667
-37.766667,144.966667
-37.8,144.933333
-37.83,147.62
-37.8,144.93
-36.85,147.5
-37.85,145.27
-37.85,145.266667
-37.37,144.53
-37.366667,144.533333
-36.12,146.88
-37.75,145.65
-36.72,142.2
-36.716667,142.2
-37.67,141.83
-37.666667,141.833333
-37.7,145.68
-37.7,145.683333
-36.9,147.27
-37.73,149.5
-37.57,149.75
-37.566667,149.75
-36.5555,145.50174
-37.5,148.18
-37.67,145.43
-37.5,148.183333
-37.666667,145.433333
-38.4091,144.9309
-37.87,145.75
-37.83,146.28
-37.866667,145.75
-37.833333,146.283333
-37.95,145.15
-38.05,145.12
-36.75,141.83
-37.97,145.05
-37.966667,145.05
-36.75,141.833333
-37.95,143.62
-37.18,141.45
-36.17,146.9
-36.45,142.03
-37.08,142.57
-35.73,143.68
-36.15,142.87
-36.98,147.13
-36.45,142.033333
-37.95,143.616667
-37.183333,141.45
-37.083333,142.066667
-35.733333,143.683333
-36.15,142.033333
-36.983333,147.133333
-38.08,145.48
-37.53,142.03
-37.98,145.13
-37.533333,142.033333
-38.083333,145.15
-37.983333,145.133333
-36.733333,146.966667
-35.16613,141.74669
-37.58,144.72
-36.73,146.78
-37.79133,145.28149
-37.72,145.15
-37.583333,144.716667
-36.733333,146.783333
-37.95,145.016
-37.58,145.18
-37.78,145.38
-37.583333,145.183333
-37.23,149.12
-38.05,145.37
-37.233333,149.116667
-37.73,148.02
-37.48,149.55
-37.78,148.15
-37.483333,149.55
-37.783333,148.15
-34.68,142.32
-35.67,142.92
-37.72,147.9
-37.72,147.68
-36.8,143.6
-34.683333,142.316667
-35.666667,142.916667
-34.333333,142.316667
-37.716667,147.9
-37.716667,147.683333
-35.57,142.12
-35.20111,141.59777
-35.566667,142.116667
-37.216667,145.433333
-36.133333,144.75
-38.166667,141.516667
-38.05,141.05
-37.483333,142.35
-37.466667,147.25
-38.2,145.15
-36.483333,141.25
-37.783333,144.966667
-37.066667,144.216667
-37.433333,143.9
-37.733333,144.933333
-37.833333,145.25
-38,145.083333
-37.65,145.366667
-37.3,143.783333
-35.433333,141.183333
-37.583333,144.1
-37.066667,142.583333
-38.333333,144.316667
-36.583333,142.233333
-38.533333,143.966667
-38.416667,141.55
-37.85,145.683333
-36.783333,142.166667
-38.083333,145.483333
-37.933333,145.45
-37.133333,142.516667
-36.766667,144.283333
-38.166667,144.35
-37.35,144.15
-38.916667,146.316667
-37,147.483333
-36.983333,147.333333
-38.233333,141.55
-37.816667,145.083333
-38.45,144.866667
-38.216667,145.383333
-38.916667,146.283333
-38.9,146.35
-38.333333,144.966667
-36.916667,142.516667
-38.933333,146.366667
-37.1,147.433333
-34.27527,140.9911
-37.78,144.25
-34.75,142.33
-36.42,145.57
-36.58,142.23
-34.6583,142.842
-35.83,142.92
-36.52,142.2
-34.666667,142.85
-35.833333,142.916667
-37.95,144.433333
-36.05,142.683333
-34.75,142.333333
-36.416667,145.566667
-35.266667,141.133333
-37.83,145.25
-37.38,145.1
-38.116667,145.816667
-37.92,145.12
-37.22,146.13
-37.68,145.1
-37.22,149.1
-37.633333,145.2
-38.483333,145.95
-38.63,143.57
-38.5,143.966667
-37.216667,146.133333
-38.2,146.35
-39.033333,146.333333
-37.216667,149.1
-38.633333,143.566667
-38.28,146.53
-36.57,147.58
-36.116667,147.016667
-36.88,147.07
-37.43,143.9
-36.766,144.116
-36.766667,144.433333
-37.1,146.266667
-37.5,149.15
-38.77,143.58
-37.4,144.58
-38.63,143.5
-37.22,148.27
-38.45,143.966667
-37.216667,148.266667
-38.2,146.533333
-37.266667,149.166667
-38.633333,143.5
-37.033333,147.233333
-36.9,147.066667
-37.8,146.016667
-37.083333,147.383333
-38.766667,143.666667
-37.1,142.42
-37.78,145.6
-37.83,145.37
-36.73,146.82
-36.533333,147.366667
-37.116667,142.4
-37.833333,145.7
-37.733333,145.7
-37.383333,145.1
-37.783333,145.583333
-38,145.416667
-37.5,145.883333
-37.516667,145.75
-38.516667,145.683333
-37.00416,147.09888
-36.94416,147.31832
-37.15,146.43
-37.5,145.42
-36.77,144.28
-37.85,144.88
-36.866667,147.283333
-37.716667,147.833333
-37.85,144.883333
-36.7,146.783333
-37.783333,145.016667
-36.9,147.266667
-34.85,142.32
-34.75,142.266667
-36.25,142.4
-34.583333,142.766667
-35.066667,142.316667
-37.98,146.38
-37.6,146.58
-37.17,146.33
-37.3,142.6
-36.78,146.85
-37.566667,146.583333
-36.783333,146.85
-36.966667,145.266667
-37.216667,142.583333
-38.28,146.62
-35.98,144.2
-36.72376,144.23132
-37.32,145.28
-38.2,146.33
-35.98,141.87
-37.52,145.13
-37.35,145.03
-37.95,145.22
-38.18,146.53
-36.28,147.23
-36.52,147.42
-36.12,143.72
-37.63,145.1
-36.63,147.52
-37.05,142.78
-37.5,144.58
-38.28,144.5
-37.68,144.43
-37.82,145.05
-37.77,145.05
-37.9,145.333
-36.366667,147.783333
-37.78,144.98
-37.83,145.08
-37.03,146.2
-37.08,147.58
-37.85,145.02
-38.48,142.98
-38.05,141.02
-36.57,146.73
-37.75,145.07
-37.916667,145.116667
-37.816667,141.433333
-38.53,143.97
-38.15,147.08
-37.48,145.13
-37.416667,144.566667
-38.05,145.366667
-38.25,146.816667
-37.516667,145.133333
-37.833333,145.083333
-36.716667,147.966667
-38.483333,142.983333
-36.116667,143.716667
-36.566667,146.733333
-37.066667,145.316667
-37.816667,145.183333
-37.05,142.783333
-38.316667,146.333333
-37.75,145.066667
-37.033333,141.283333
-37.5,144.583333
-37.683333,144.433333
-37.75,144.966667
-37.35,145.033333
-37.316667,145.3
-35.983333,141.866667
-37.883333,145.166667
-38.366667,144.883333
-36.533333,147.45
-37.483333,145.133333
-36.766667,141.833333
-38.05,145.25
-37,147.6
-37.77,145.62
-38.93,146.3
-38.33,144.97
-37.95,145.48
-37.95,145.483333
-37.93,145.12
-37.92,145.13
-38.02,141.4
-36.75,145.57
-36.75,145.566667
-36.833333,147.383333
-37.916667,145.133333
-37.32,145.7
-35.95,145
-37.53,149.15
-37.92,144.67
-38.4,146.48
-37.83,145.1
-37.72,148.37
-37.33,145.5
-35.616667,143.75
-38.333333,146.416667
-37.85,145.083333
-37.533333,149.15
-36.05,146.466667
-37.333333,145.5
-37.916667,144.666667
-37.216667,146.65
-38.42,141.55
-38.23,141.33
-37.5,149.6
-37.7,147.62
-37.57,149.07
-36.43,146.22
-36.4,146.22
-37.02,142.72
-36.58,143.87
-34.62,142.22
-34.783333,142.516667
-37.016667,147.6
-37.05,143.733333
-36.466667,146.216667
-36.516667,142.2
-37.016667,142.716667
-37.583333,149.033333
-36.616667,141.816667
-34.616667,142.216667
-38.68388,143.38555
-37.5,145.27
-36.95,142.32
-36.35,146.07
-37.8,145.15
-37.15,146.45
-36.15,147.566
-36.15,147.483333
-36.2,146.166667
-38.43,141.55
-37.583333,145.683333
-37.5,145.266667
-36.866667,147.233333
-36.95,142.316667
-36.4,146.216667
-36.433333,146.216667
-37.85,144.18
-36.583333,143.866667
-37.22,145.02
-37.95,146.45
-37.52,149.17
-37.983333,145.033333
-37.516667,149.166667
-38.02,141.02
-38.35,144.95
-37.15,146.433333
-37.43,142.48
-37.85,145.37
-37.17,146.53
-38.666667,146.333333
-37.483333,144.75
-37.85,145.366667
-36.97,147.2
-38.28,146.38
-37.73,145.1
-37.85,145.08
-38.266667,146.383333
-37.566667,145.1
-38.533333,145.383333
-36.966667,148.2
-37.833333,145.366667
-38.233333,141.533333
-38.183333,141.6
-37.1,145.1